%YAML 1.1
%TAG !u! tag:unity3d.com,2011:
--- !u!21 &2100000
Material:
  serializedVersion: 6
  m_ObjectHideFlags: 0
  m_CorrespondingSourceObject: {fileID: 0}
  m_PrefabInstance: {fileID: 0}
  m_PrefabAsset: {fileID: 0}
  m_Name: Shader Graphs_trail 2
  m_Shader: {fileID: -6465566751694194690, guid: 2c3a18b192926db4b8f5261238be9b7c, type: 3}
  m_ShaderKeywords: 
  m_LightmapFlags: 4
  m_EnableInstancingVariants: 0
  m_DoubleSidedGI: 0
  m_CustomRenderQueue: -1
  stringTagMap: {}
  disabledShaderPasses: []
  m_SavedProperties:
    serializedVersion: 3
    m_TexEnvs:
    - Texture2D_a79ce5b3e76e41cc81f92fa5b476c78b:
        m_Texture: {fileID: 2800000, guid: 3d0793b258209404dadd15d8fc4f76d0, type: 3}
        m_Scale: {x: 1, y: 1}
        m_Offset: {x: 0, y: 0}
    - unity_Lightmaps:
        m_Texture: {fileID: 0}
        m_Scale: {x: 1, y: 1}
        m_Offset: {x: 0, y: 0}
    - unity_LightmapsInd:
        m_Texture: {fileID: 0}
        m_Scale: {x: 1, y: 1}
        m_Offset: {x: 0, y: 0}
    - unity_ShadowMasks:
        m_Texture: {fileID: 0}
        m_Scale: {x: 1, y: 1}
        m_Offset: {x: 0, y: 0}
    m_Floats:
    - Vector1_17079b58bb014ace8be4b402e94fac98: 35
    m_Colors:
    - Color_cd667fe7a458427994bdad5a48cf9640: {r: 0.023529412, g: 0.0019607844, b: 0.19607843, a: 0}
    - Color_f687686b8c514edfb9862f406fb5d56f: {r: 0.023529412, g: 0.0019607844, b: 0.19607843, a: 0}
    - Vector2_5231814fdae640f7bb694cc8b416ef90: {r: -0.5, g: 0, b: 0, a: 0}
    - Vector2_540da775f09c496fb1fa317f608475d1: {r: -0.1, g: 0, b: 0, a: 0}
  m_BuildTextureStacks: []
