%YAML 1.1
%TAG !u! tag:unity3d.com,2011:
--- !u!74 &7400000
AnimationClip:
  m_ObjectHideFlags: 0
  m_CorrespondingSourceObject: {fileID: 0}
  m_PrefabInstance: {fileID: 0}
  m_PrefabAsset: {fileID: 0}
  m_Name: HEAT
  serializedVersion: 6
  m_Legacy: 0
  m_Compressed: 0
  m_UseHighQualityCurve: 1
  m_RotationCurves: []
  m_CompressedRotationCurves: []
  m_EulerCurves: []
  m_PositionCurves: []
  m_ScaleCurves: []
  m_FloatCurves: []
  m_PPtrCurves:
  - curve:
    - time: 0
      value: {fileID: 21300000, guid: 875ff8e680332314c8f826061ce6bb60, type: 3}
    - time: 0.033333335
      value: {fileID: 21300000, guid: 1d0a30c26442ac14f9f9230a2911bd7d, type: 3}
    - time: 0.06666667
      value: {fileID: 21300000, guid: edc0f9ad20653604ca4123be8a5253e4, type: 3}
    - time: 0.1
      value: {fileID: 21300000, guid: 032d77a38ca8aef4f920a7b8369b3dcf, type: 3}
    - time: 0.13333334
      value: {fileID: 21300000, guid: ccfefb7e36623ef47ae5d2f6165cc55b, type: 3}
    - time: 0.16666667
      value: {fileID: 21300000, guid: 1cd862250e133da44b0abe330eda2b6b, type: 3}
    - time: 0.2
      value: {fileID: 21300000, guid: 15183c489f0bb244bb14e075e038b527, type: 3}
    - time: 0.23333333
      value: {fileID: 21300000, guid: 15a131b24d655f547b0a2a84ba95d719, type: 3}
    - time: 0.26666668
      value: {fileID: 21300000, guid: 1c5456d0485b0c4429d9aa1065813887, type: 3}
    - time: 0.3
      value: {fileID: 21300000, guid: 37904905fed67d4498dc7d87f8639268, type: 3}
    - time: 0.33333334
      value: {fileID: 21300000, guid: 55bddba6091d0974b973dcccbf7525ec, type: 3}
    - time: 0.36666667
      value: {fileID: 21300000, guid: e2c496abb79d87448af7b263b0f283e8, type: 3}
    - time: 0.4
      value: {fileID: 21300000, guid: 7155232ab983b344fad6fa43bb52e1bd, type: 3}
    - time: 0.43333334
      value: {fileID: 21300000, guid: de46ce21380de074d8e52d451db578e5, type: 3}
    - time: 0.46666667
      value: {fileID: 21300000, guid: 968594dae2096924384ec54e4d50a1ce, type: 3}
    - time: 0.5
      value: {fileID: 21300000, guid: 77367a93bf7d3084dbe80b87739bbd15, type: 3}
    - time: 0.53333336
      value: {fileID: 21300000, guid: 02af0a17dda4f4f4e9e60084b81c3aee, type: 3}
    - time: 0.56666666
      value: {fileID: 21300000, guid: b1272406c6214c2469b6dae54689d764, type: 3}
    - time: 0.6
      value: {fileID: 21300000, guid: 0637452ef52ae724dad07b1d605a653b, type: 3}
    - time: 0.6333333
      value: {fileID: 21300000, guid: 0a42d42d67406da478ff91cb20126ab2, type: 3}
    - time: 0.6666667
      value: {fileID: 21300000, guid: 69c279e2a4c0a4b4486ba0416f6b978d, type: 3}
    - time: 0.7
      value: {fileID: 21300000, guid: f3d74d326e563e445b14e97cc6cfe9bf, type: 3}
    - time: 0.73333335
      value: {fileID: 21300000, guid: 7072e0b099bd96c4fb965de2b574a8a4, type: 3}
    - time: 0.76666665
      value: {fileID: 21300000, guid: bf79a3fa160dfba4da6f86aa61166c81, type: 3}
    - time: 0.8
      value: {fileID: 21300000, guid: 7b38a1316e765fd4bbcb5d7f68137fca, type: 3}
    - time: 0.8333333
      value: {fileID: 21300000, guid: a16a1e09fb5a5a04f801db05e2c633a6, type: 3}
    - time: 0.8666667
      value: {fileID: 21300000, guid: 2f5b22ccc6e9fcc468539bfdbaccd56b, type: 3}
    - time: 0.9
      value: {fileID: 21300000, guid: 3e98c8eaafe6fcf40a88cddf5a07c7a1, type: 3}
    attribute: m_Sprite
    path: 
    classID: 212
    script: {fileID: 0}
  - curve:
    - time: 0
      value: {fileID: 21300000, guid: 875ff8e680332314c8f826061ce6bb60, type: 3}
    - time: 0.033333335
      value: {fileID: 21300000, guid: 1d0a30c26442ac14f9f9230a2911bd7d, type: 3}
    - time: 0.06666667
      value: {fileID: 21300000, guid: edc0f9ad20653604ca4123be8a5253e4, type: 3}
    - time: 0.1
      value: {fileID: 21300000, guid: 032d77a38ca8aef4f920a7b8369b3dcf, type: 3}
    - time: 0.13333334
      value: {fileID: 21300000, guid: ccfefb7e36623ef47ae5d2f6165cc55b, type: 3}
    - time: 0.16666667
      value: {fileID: 21300000, guid: 1cd862250e133da44b0abe330eda2b6b, type: 3}
    - time: 0.2
      value: {fileID: 21300000, guid: 15183c489f0bb244bb14e075e038b527, type: 3}
    - time: 0.23333333
      value: {fileID: 21300000, guid: 15a131b24d655f547b0a2a84ba95d719, type: 3}
    - time: 0.26666668
      value: {fileID: 21300000, guid: 1c5456d0485b0c4429d9aa1065813887, type: 3}
    - time: 0.3
      value: {fileID: 21300000, guid: 37904905fed67d4498dc7d87f8639268, type: 3}
    - time: 0.33333334
      value: {fileID: 21300000, guid: 55bddba6091d0974b973dcccbf7525ec, type: 3}
    - time: 0.36666667
      value: {fileID: 21300000, guid: e2c496abb79d87448af7b263b0f283e8, type: 3}
    - time: 0.4
      value: {fileID: 21300000, guid: 7155232ab983b344fad6fa43bb52e1bd, type: 3}
    - time: 0.43333334
      value: {fileID: 21300000, guid: de46ce21380de074d8e52d451db578e5, type: 3}
    - time: 0.46666667
      value: {fileID: 21300000, guid: 968594dae2096924384ec54e4d50a1ce, type: 3}
    - time: 0.5
      value: {fileID: 21300000, guid: 77367a93bf7d3084dbe80b87739bbd15, type: 3}
    - time: 0.53333336
      value: {fileID: 21300000, guid: 02af0a17dda4f4f4e9e60084b81c3aee, type: 3}
    - time: 0.56666666
      value: {fileID: 21300000, guid: b1272406c6214c2469b6dae54689d764, type: 3}
    - time: 0.6
      value: {fileID: 21300000, guid: 0637452ef52ae724dad07b1d605a653b, type: 3}
    - time: 0.6333333
      value: {fileID: 21300000, guid: 0a42d42d67406da478ff91cb20126ab2, type: 3}
    - time: 0.6666667
      value: {fileID: 21300000, guid: 69c279e2a4c0a4b4486ba0416f6b978d, type: 3}
    - time: 0.7
      value: {fileID: 21300000, guid: f3d74d326e563e445b14e97cc6cfe9bf, type: 3}
    - time: 0.73333335
      value: {fileID: 21300000, guid: 7072e0b099bd96c4fb965de2b574a8a4, type: 3}
    - time: 0.76666665
      value: {fileID: 21300000, guid: bf79a3fa160dfba4da6f86aa61166c81, type: 3}
    - time: 0.8
      value: {fileID: 21300000, guid: 7b38a1316e765fd4bbcb5d7f68137fca, type: 3}
    - time: 0.8333333
      value: {fileID: 21300000, guid: a16a1e09fb5a5a04f801db05e2c633a6, type: 3}
    - time: 0.8666667
      value: {fileID: 21300000, guid: 2f5b22ccc6e9fcc468539bfdbaccd56b, type: 3}
    - time: 0.9
      value: {fileID: 21300000, guid: 3e98c8eaafe6fcf40a88cddf5a07c7a1, type: 3}
    attribute: m_Sprite
    path: 
    classID: 114
    script: {fileID: 11500000, guid: fe87c0e1cc204ed48ad3b37840f39efc, type: 3}
  m_SampleRate: 30
  m_WrapMode: 0
  m_Bounds:
    m_Center: {x: 0, y: 0, z: 0}
    m_Extent: {x: 0, y: 0, z: 0}
  m_ClipBindingConstant:
    genericBindings:
    - serializedVersion: 2
      path: 0
      attribute: 0
      script: {fileID: 0}
      typeID: 212
      customType: 23
      isPPtrCurve: 1
    - serializedVersion: 2
      path: 0
      attribute: 2015549526
      script: {fileID: 11500000, guid: fe87c0e1cc204ed48ad3b37840f39efc, type: 3}
      typeID: 114
      customType: 0
      isPPtrCurve: 1
    pptrCurveMapping:
    - {fileID: 21300000, guid: 875ff8e680332314c8f826061ce6bb60, type: 3}
    - {fileID: 21300000, guid: 1d0a30c26442ac14f9f9230a2911bd7d, type: 3}
    - {fileID: 21300000, guid: edc0f9ad20653604ca4123be8a5253e4, type: 3}
    - {fileID: 21300000, guid: 032d77a38ca8aef4f920a7b8369b3dcf, type: 3}
    - {fileID: 21300000, guid: ccfefb7e36623ef47ae5d2f6165cc55b, type: 3}
    - {fileID: 21300000, guid: 1cd862250e133da44b0abe330eda2b6b, type: 3}
    - {fileID: 21300000, guid: 15183c489f0bb244bb14e075e038b527, type: 3}
    - {fileID: 21300000, guid: 15a131b24d655f547b0a2a84ba95d719, type: 3}
    - {fileID: 21300000, guid: 1c5456d0485b0c4429d9aa1065813887, type: 3}
    - {fileID: 21300000, guid: 37904905fed67d4498dc7d87f8639268, type: 3}
    - {fileID: 21300000, guid: 55bddba6091d0974b973dcccbf7525ec, type: 3}
    - {fileID: 21300000, guid: e2c496abb79d87448af7b263b0f283e8, type: 3}
    - {fileID: 21300000, guid: 7155232ab983b344fad6fa43bb52e1bd, type: 3}
    - {fileID: 21300000, guid: de46ce21380de074d8e52d451db578e5, type: 3}
    - {fileID: 21300000, guid: 968594dae2096924384ec54e4d50a1ce, type: 3}
    - {fileID: 21300000, guid: 77367a93bf7d3084dbe80b87739bbd15, type: 3}
    - {fileID: 21300000, guid: 02af0a17dda4f4f4e9e60084b81c3aee, type: 3}
    - {fileID: 21300000, guid: b1272406c6214c2469b6dae54689d764, type: 3}
    - {fileID: 21300000, guid: 0637452ef52ae724dad07b1d605a653b, type: 3}
    - {fileID: 21300000, guid: 0a42d42d67406da478ff91cb20126ab2, type: 3}
    - {fileID: 21300000, guid: 69c279e2a4c0a4b4486ba0416f6b978d, type: 3}
    - {fileID: 21300000, guid: f3d74d326e563e445b14e97cc6cfe9bf, type: 3}
    - {fileID: 21300000, guid: 7072e0b099bd96c4fb965de2b574a8a4, type: 3}
    - {fileID: 21300000, guid: bf79a3fa160dfba4da6f86aa61166c81, type: 3}
    - {fileID: 21300000, guid: 7b38a1316e765fd4bbcb5d7f68137fca, type: 3}
    - {fileID: 21300000, guid: a16a1e09fb5a5a04f801db05e2c633a6, type: 3}
    - {fileID: 21300000, guid: 2f5b22ccc6e9fcc468539bfdbaccd56b, type: 3}
    - {fileID: 21300000, guid: 3e98c8eaafe6fcf40a88cddf5a07c7a1, type: 3}
    - {fileID: 21300000, guid: 875ff8e680332314c8f826061ce6bb60, type: 3}
    - {fileID: 21300000, guid: 1d0a30c26442ac14f9f9230a2911bd7d, type: 3}
    - {fileID: 21300000, guid: edc0f9ad20653604ca4123be8a5253e4, type: 3}
    - {fileID: 21300000, guid: 032d77a38ca8aef4f920a7b8369b3dcf, type: 3}
    - {fileID: 21300000, guid: ccfefb7e36623ef47ae5d2f6165cc55b, type: 3}
    - {fileID: 21300000, guid: 1cd862250e133da44b0abe330eda2b6b, type: 3}
    - {fileID: 21300000, guid: 15183c489f0bb244bb14e075e038b527, type: 3}
    - {fileID: 21300000, guid: 15a131b24d655f547b0a2a84ba95d719, type: 3}
    - {fileID: 21300000, guid: 1c5456d0485b0c4429d9aa1065813887, type: 3}
    - {fileID: 21300000, guid: 37904905fed67d4498dc7d87f8639268, type: 3}
    - {fileID: 21300000, guid: 55bddba6091d0974b973dcccbf7525ec, type: 3}
    - {fileID: 21300000, guid: e2c496abb79d87448af7b263b0f283e8, type: 3}
    - {fileID: 21300000, guid: 7155232ab983b344fad6fa43bb52e1bd, type: 3}
    - {fileID: 21300000, guid: de46ce21380de074d8e52d451db578e5, type: 3}
    - {fileID: 21300000, guid: 968594dae2096924384ec54e4d50a1ce, type: 3}
    - {fileID: 21300000, guid: 77367a93bf7d3084dbe80b87739bbd15, type: 3}
    - {fileID: 21300000, guid: 02af0a17dda4f4f4e9e60084b81c3aee, type: 3}
    - {fileID: 21300000, guid: b1272406c6214c2469b6dae54689d764, type: 3}
    - {fileID: 21300000, guid: 0637452ef52ae724dad07b1d605a653b, type: 3}
    - {fileID: 21300000, guid: 0a42d42d67406da478ff91cb20126ab2, type: 3}
    - {fileID: 21300000, guid: 69c279e2a4c0a4b4486ba0416f6b978d, type: 3}
    - {fileID: 21300000, guid: f3d74d326e563e445b14e97cc6cfe9bf, type: 3}
    - {fileID: 21300000, guid: 7072e0b099bd96c4fb965de2b574a8a4, type: 3}
    - {fileID: 21300000, guid: bf79a3fa160dfba4da6f86aa61166c81, type: 3}
    - {fileID: 21300000, guid: 7b38a1316e765fd4bbcb5d7f68137fca, type: 3}
    - {fileID: 21300000, guid: a16a1e09fb5a5a04f801db05e2c633a6, type: 3}
    - {fileID: 21300000, guid: 2f5b22ccc6e9fcc468539bfdbaccd56b, type: 3}
    - {fileID: 21300000, guid: 3e98c8eaafe6fcf40a88cddf5a07c7a1, type: 3}
  m_AnimationClipSettings:
    serializedVersion: 2
    m_AdditiveReferencePoseClip: {fileID: 0}
    m_AdditiveReferencePoseTime: 0
    m_StartTime: 0
    m_StopTime: 0.93333334
    m_OrientationOffsetY: 0
    m_Level: 0
    m_CycleOffset: 0
    m_HasAdditiveReferencePose: 0
    m_LoopTime: 1
    m_LoopBlend: 0
    m_LoopBlendOrientation: 0
    m_LoopBlendPositionY: 0
    m_LoopBlendPositionXZ: 0
    m_KeepOriginalOrientation: 0
    m_KeepOriginalPositionY: 1
    m_KeepOriginalPositionXZ: 0
    m_HeightFromFeet: 0
    m_Mirror: 0
  m_EditorCurves: []
  m_EulerEditorCurves: []
  m_HasGenericRootTransform: 0
  m_HasMotionFloatCurves: 0
  m_Events: []
