%YAML 1.1
%TAG !u! tag:unity3d.com,2011:
--- !u!114 &-8823990219749534365
MonoBehaviour:
  m_ObjectHideFlags: 11
  m_CorrespondingSourceObject: {fileID: 0}
  m_PrefabInstance: {fileID: 0}
  m_PrefabAsset: {fileID: 0}
  m_GameObject: {fileID: 0}
  m_Enabled: 1
  m_EditorHideFlags: 0
  m_Script: {fileID: 11500000, guid: d0353a89b1f911e48b9e16bdc9f2e058, type: 3}
  m_Name: 
  m_EditorClassIdentifier: 
  version: 4
--- !u!21 &2100000
Material:
  serializedVersion: 6
  m_ObjectHideFlags: 0
  m_CorrespondingSourceObject: {fileID: 0}
  m_PrefabInstance: {fileID: 0}
  m_PrefabAsset: {fileID: 0}
  m_Name: Bike_Red
  m_Shader: {fileID: -6465566751694194690, guid: 0a49d3094ad5e2f43aa67544192c5a56, type: 3}
  m_ShaderKeywords: _EMISSION _METALLICSPECGLOSSMAP _NORMALMAP
  m_LightmapFlags: 2
  m_EnableInstancingVariants: 0
  m_DoubleSidedGI: 0
  m_CustomRenderQueue: -1
  stringTagMap: {}
  disabledShaderPasses: []
  m_SavedProperties:
    serializedVersion: 3
    m_TexEnvs:
    - Texture2D_87b28e803b124904beb3aed460a87b77:
        m_Texture: {fileID: 2800000, guid: f0a09880fd199664ea26ba07d6064550, type: 3}
        m_Scale: {x: 1, y: 1}
        m_Offset: {x: 0, y: 0}
    - Texture2D_89ff0ae5291a47d09d7c83fa758ba747:
        m_Texture: {fileID: 2800000, guid: 019ddaa349e188c45b25dcc919d551b8, type: 3}
        m_Scale: {x: 1, y: 1}
        m_Offset: {x: 0, y: 0}
    - Texture2D_a2ee7f2dc4244cdbb0ce5edc40bed7b4:
        m_Texture: {fileID: 0}
        m_Scale: {x: 1, y: 1}
        m_Offset: {x: 0, y: 0}
    - Texture2D_ec7bbb183e4d44fca3b7f929757e7aad:
        m_Texture: {fileID: 2800000, guid: 43b0be2573c1ce74b9106ea92e1391db, type: 3}
        m_Scale: {x: 1, y: 1}
        m_Offset: {x: 0, y: 0}
    - Texture2D_f4dcfc1bab594d309f74f9a85fe49b11:
        m_Texture: {fileID: 2800000, guid: f2e5d6c8aa27a2040875f200d09fd7ae, type: 3}
        m_Scale: {x: 1, y: 1}
        m_Offset: {x: 0, y: 0}
    - _BaseMap:
        m_Texture: {fileID: 2800000, guid: db782e31d5057ea4d9220f1cd214e6f7, type: 3}
        m_Scale: {x: 1, y: 1}
        m_Offset: {x: 0, y: 0}
    - _BumpMap:
        m_Texture: {fileID: 2800000, guid: 2ad5f80eafee1214d9891abaf9c0b228, type: 3}
        m_Scale: {x: 1, y: 1}
        m_Offset: {x: 0, y: 0}
    - _CalculateLights_16c7b4e20c35461588705f41ead7878b_Texture2Dff2ccf5ce7be423883123540bc3c751a_3109030116:
        m_Texture: {fileID: 0}
        m_Scale: {x: 1, y: 1}
        m_Offset: {x: 0, y: 0}
    - _CalculateLights_71e9b858e36d45cabf092bde590f9647_Texture2Dff2ccf5ce7be423883123540bc3c751a_3109030116:
        m_Texture: {fileID: 0}
        m_Scale: {x: 1, y: 1}
        m_Offset: {x: 0, y: 0}
    - _DetailAlbedoMap:
        m_Texture: {fileID: 0}
        m_Scale: {x: 1, y: 1}
        m_Offset: {x: 0, y: 0}
    - _DetailMask:
        m_Texture: {fileID: 0}
        m_Scale: {x: 1, y: 1}
        m_Offset: {x: 0, y: 0}
    - _DetailNormalMap:
        m_Texture: {fileID: 0}
        m_Scale: {x: 1, y: 1}
        m_Offset: {x: 0, y: 0}
    - _EmissionMap:
        m_Texture: {fileID: 2800000, guid: 8bd6df5b2f41d9e41bc79a95837973a5, type: 3}
        m_Scale: {x: 1, y: 1}
        m_Offset: {x: 0, y: 0}
    - _MainTex:
        m_Texture: {fileID: 2800000, guid: db782e31d5057ea4d9220f1cd214e6f7, type: 3}
        m_Scale: {x: 1, y: 1}
        m_Offset: {x: 0, y: 0}
    - _MetallicGlossMap:
        m_Texture: {fileID: 2800000, guid: 3d88278cd5658dd48b6b983aa766c904, type: 3}
        m_Scale: {x: 1, y: 1}
        m_Offset: {x: 0, y: 0}
    - _OcclusionMap:
        m_Texture: {fileID: 0}
        m_Scale: {x: 1, y: 1}
        m_Offset: {x: 0, y: 0}
    - _ParallaxMap:
        m_Texture: {fileID: 0}
        m_Scale: {x: 1, y: 1}
        m_Offset: {x: 0, y: 0}
    - _SampleTexture2D_0d8b5218dd17476cac558476a65b728e_Texture_1:
        m_Texture: {fileID: 0}
        m_Scale: {x: 1, y: 1}
        m_Offset: {x: 0, y: 0}
    - _SampleTexture2D_9141ebb0e527484c829c88a160697afd_Texture_1:
        m_Texture: {fileID: 2800000, guid: 2b217b2c24508f34bb2ffd75d6071048, type: 3}
        m_Scale: {x: 1, y: 1}
        m_Offset: {x: 0, y: 0}
    - _SpecGlossMap:
        m_Texture: {fileID: 0}
        m_Scale: {x: 1, y: 1}
        m_Offset: {x: 0, y: 0}
    - unity_Lightmaps:
        m_Texture: {fileID: 0}
        m_Scale: {x: 1, y: 1}
        m_Offset: {x: 0, y: 0}
    - unity_LightmapsInd:
        m_Texture: {fileID: 0}
        m_Scale: {x: 1, y: 1}
        m_Offset: {x: 0, y: 0}
    - unity_ShadowMasks:
        m_Texture: {fileID: 0}
        m_Scale: {x: 1, y: 1}
        m_Offset: {x: 0, y: 0}
    m_Floats:
    - Vector1_4f2bdfedbb16498ba13833c320428019: 1
    - Vector1_80ae13ead5b34674acb885ad2d997a59: 0.003
    - Vector1_8abb29415e8d4424a564e855eab134b6: 1
    - Vector1_9172a7c446bf47538066972280a7b30d: 1
    - Vector1_96ca9fd4625d475fab8a3835418b049d: 1
    - Vector1_a6319b430b33408e95d70d7a9132eb2b: 1
    - Vector1_a8b7efd094534ec7ad297244cea71241: 10
    - Vector1_b6881fa12f0b42e991950655d2f88446: 1
    - Vector1_c4e05da8d9254f30bb8cb6f2dc0231d2: 1
    - Vector1_ceaa468f212243c58186d0f3092cd788: 1
    - Vector1_e12b5ca6adea46adb28f8e43241b7856: 0.9
    - Vector1_ffb804a6744544719f2c74a5b7599a05: 1
    - _AlphaClip: 0
    - _Blend: 0
    - _BumpScale: 1
    - _ClearCoatMask: 0
    - _ClearCoatSmoothness: 0
    - _Cull: 2
    - _Cutoff: 0.5
    - _DetailAlbedoMapScale: 1
    - _DetailNormalMapScale: 1
    - _DstBlend: 0
    - _EnvironmentReflections: 1
    - _GlossMapScale: 0
    - _Glossiness: 0
    - _GlossyReflections: 0
    - _Metallic: 0
    - _OcclusionStrength: 1
    - _Parallax: 0.005
    - _QueueOffset: 0
    - _ReceiveShadows: 1
    - _Smoothness: 0.5
    - _SmoothnessTextureChannel: 0
    - _SpecularHighlights: 1
    - _SrcBlend: 1
    - _Surface: 0
    - _WorkflowMode: 1
    - _ZWrite: 1
    m_Colors:
    - Color_d215cd48e49d4db5bafabe3522a69fa4: {r: 1, g: 0.000000091393794, b: 0, a: 0}
    - Vector2_d6bae34d47434eb0813e72c11b0f1d93: {r: 0, g: 0, b: 0, a: 0}
    - _BaseColor: {r: 1, g: 1, b: 1, a: 1}
    - _Color: {r: 1, g: 1, b: 1, a: 1}
    - _EmissionColor: {r: 1, g: 1, b: 1, a: 1}
    - _SpecColor: {r: 0.2, g: 0.2, b: 0.2, a: 1}
  m_BuildTextureStacks: []
